Lemon Juice Classification
…
# predict on validation fold using prior defined function
d.CV.SVM.radial = d.CV.SVM.radial %>%  func.cv.prediction()

# summarize radial kernel CV result
d.tune.svm.radial = d.CV.SVM.radial %>%
  group_by(gamma, cost) %>%
  summarise(accuracy.mean = mean(accuracy),
            accuracy.sd = sd(accuracy)) %>%
  arrange(desc(accuracy.mean))
d.tune.svm.radial

## # A tibble: 255 x 4
## # Groups:   gamma [17]
##     gamma     cost accuracy.mean accuracy.sd
##     <dbl>    <dbl>         <dbl>       <dbl>
##  1 0.1        10            89.2        8.77
##  2 0.0316     10            87.7       14.0 
##  3 0.1        31.6          87.7        8.77
##  4 0.1       100            87.7        8.77
##  5 0.1       316.           87.7        8.77
##  6 0.1      1000            87.7        8.77
##  7 0.1      3162.           87.7        8.77
##  8 0.1     10000            87.7        8.77
##  9 0.1     31623.           87.7        8.77
## 10 0.1    100000            87.7        8.77
## # … with 245 more rows
…
# predict on validation fold using prior defined function
d.CV.SVM.polynomial = d.CV.SVM.polynomial %>% func.cv.prediction()

# summarize tune result of polynomial kernel
d.tune.svm.polynomial = d.CV.SVM.polynomial %>% 
  group_by(degree, cost) %>%
  summarise(accuracy.mean = mean(accuracy),
            accuracy.sd = sd(accuracy)) %>%
  arrange(desc(accuracy.mean))
d.tune.svm.polynomial

## # A tibble: 90 x 4
## # Groups:   degree [6]
##    degree     cost accuracy.mean accuracy.sd
##     <int>    <dbl>         <dbl>       <dbl>
##  1      3    100            81.5        8.77
##  2      3    316.           81.5        8.77
##  3      3   1000            81.5        8.77
##  4      3   3162.           81.5        8.77
##  5      3  10000            81.5        8.77
##  6      3  31623.           81.5        8.77
##  7      3 100000            81.5        8.77
##  8      3     31.6          80         10.3 
##  9      5  10000            78.5       15.8 
## 10      5  31623.           78.5       15.8 
## # … with 80 more rows
…
d.tune.RF = d.CV.RF %>%
  group_by(trees, features) %>%
  summarise(accuracy.mean = mean(accuracy),
            accuracy.sd = sd(accuracy)) %>%
  arrange(desc(accuracy.mean))
d.tune.RF

## # A tibble: 70 x 4
## # Groups:   trees [10]
##    trees features accuracy.mean accuracy.sd
##    <dbl>    <int>         <dbl>       <dbl>
##  1   100        3          86.2        8.43
##  2   200        3          86.2        8.43
##  3   300        2          86.2        8.43
##  4   500        2          86.2        8.43
##  5   500        3          86.2        8.43
##  6   500        4          86.2        8.43
##  7   600        3          86.2        8.43
##  8   600        4          86.2        8.43
##  9   600        5          86.2        8.43
## 10   700        4          86.2        8.43
## # … with 60 more rows
…
